{
  "saved": true,
  "strataColor": {
    "Made Ground": "#aeabab",
    "Clay": "#9cc2e5",
    "Sand": "#ffff00",
    "Gravel": "#ffc000",
    "Silt": "#fbe4d4",
    "Chalk": "#fff2cc",
    "Limestone": "#ffd966",
    "Mudstone": "#7f6000",
    "Sandstone": "#c55a11",
    "Void": "#ffffff",
    "Flint": "#a8d08c",
    "Peat": "#000000",
    "Rock": "#000000"
  },
  "projectName": "",
  "dateCreated": "",
  "dateModified": "",
  "cloudLinkId": "",
  "projectDetails": {
    "jobNumber": "",
    "date": "",
    "engineer": "",
    "client": "",
    "location": "",
    "checked": "Yet to be Checked",
    "typeOfMode": "maOD",
    "approvedByPerson": "",
    "revision": "",
    "dateOfLastRevision": ""
  },
  "specifications": {
    "specifications": "",
    "pertinentDrawing": "",
    "dwgRev": "",
    "si": "",
    "required": "0",
    "concretePile": {
      "dcClass": "",
      "concreteGrade": "",
      "steelGrade": "",
      "required": "0"
    },
    "steelPile": {
      "soilAggresivity": "",
      "steelGrade": "",
      "required": "0"
    }
  },
  "testing": {
    "integrityTest": "",
    "prelimTestPile": "",
    "workingTestPile": "",
    "other": ""
  },
  "rigsAndTolerances": {
    "debondingTolerance": "",
    "pileType": "",
    "rigName": "",
    "maxRigDepth": ""
  },
  "soilData": {
    "save": 1,
    "noOfBh": 2,
    "noOfParams": 17,
    "sectionData": {
      "save": 1,
      "section_1": [
        "WS2",
        "WS1"
      ],
      "noOfSection": 1
    },
    "groundModelData": {
      "save": 1,
      "gm1": [
        "WS2",
        "WS1"
      ],
      "noOfGm": 1
    },
    "WS1": {
      "testData": {
        "SPT": {
          "testValue": {
            "x1": "95",
            "y1": "1",
            "x2": "93",
            "y2": "2",
            "x3": "85",
            "y3": "3",
            "x4": "83",
            "y4": "4",
            "x5": "75",
            "y5": "5",
            "x6": "73",
            "y6": "6",
            "x7": "65",
            "y7": "7",
            "x8": "63",
            "y8": "8"
          }
        },
        "Cu": {
          "testValue": {
            "x1": "",
            "y1": "",
            "x2": "",
            "y2": "",
            "x3": "",
            "y3": "",
            "x4": "",
            "y4": ""
          }
        },
        "Ics": {
          "testValue": {
            "x1": "",
            "y1": "",
            "x2": "",
            "y2": "",
            "x3": "",
            "y3": "",
            "x4": "",
            "y4": ""
          }
        },
        "UcMap": {
          "testValue": {
            "x1": "",
            "y1": "",
            "x2": "",
            "y2": "",
            "x3": "",
            "y3": "",
            "x4": "",
            "y4": ""
          }
        }
      },
      "noOfTestTaken": 4,
      "testTaken": [
        "SPT",
        "Cu",
        "Ics",
        "UcMap"
      ],
      "stratumData": {
        "Northings": "123456",
        "Eastings": "654321",
        "Groundwater": "98",
        "Made Ground": {
          "start": "100",
          "end": "90",
          "strataColor": "#aeabab"
        },
        "Clay": {
          "start": "90",
          "end": "80",
          "strataColor": "#9cc2e5"
        },
        "Sand": {
          "start": "80",
          "end": "70",
          "strataColor": "#ffff00"
        },
        "Rock": {
          "start": "70",
          "end": "60",
          "strataColor": "#000000"
        }
      }
    },
    "WS2": {
      "testData": {
        "SPT": {
          "testValue": {
            "x1": "97",
            "y1": "1.5",
            "x2": "91",
            "y2": "2.5",
            "x3": "87",
            "y3": "3.5",
            "x4": "81",
            "y4": "4.5",
            "x5": "77",
            "y5": "5.5",
            "x6": "71",
            "y6": "6.5",
            "x7": "67",
            "y7": "7.5",
            "x8": "61",
            "y8": "8.5"
          }
        },
        "Cu": {
          "testValue": {
            "x1": "",
            "y1": "",
            "x2": "",
            "y2": "",
            "x3": "",
            "y3": "",
            "x4": "",
            "y4": ""
          }
        },
        "Ics": {
          "testValue": {
            "x1": "",
            "y1": "",
            "x2": "",
            "y2": "",
            "x3": "",
            "y3": "",
            "x4": "",
            "y4": ""
          }
        },
        "UcMap": {
          "testValue": {
            "x1": "",
            "y1": "",
            "x2": "",
            "y2": "",
            "x3": "",
            "y3": "",
            "x4": "",
            "y4": ""
          }
        }
      },
      "noOfTestTaken": 4,
      "testTaken": [
        "SPT",
        "Cu",
        "Ics",
        "UcMap"
      ],
      "stratumData": {
        "Northings": "432156",
        "Eastings": "564321",
        "Groundwater": "95",
        "Made Ground": {
          "start": "100",
          "end": "87",
          "strataColor": "#aeabab"
        },
        "Clay": {
          "start": "87",
          "end": "75",
          "strataColor": "#9cc2e5"
        },
        "Sand": {
          "start": "75",
          "end": "67",
          "strataColor": "#ffff00"
        },
        "Rock": {
          "start": "67",
          "end": "59",
          "strataColor": "#000000"
        }
      }
    },
    "params": {
      "WS1": [
        "Northings",
        "Eastings",
        "Groundwater",
        "Made Ground",
        "Clay",
        "Sand",
        "Rock"
      ],
      "WS2": [
        "Northings",
        "Eastings",
        "Groundwater",
        "Made Ground",
        "Clay",
        "Sand",
        "Rock"
      ]
    },
    "noOfTest": 4,
    "test": [
      "SPT",
      "Cu",
      "Ics",
      "UcMap"
    ],
    "boreholeArray": [
      "WS1",
      "WS2"
    ],
    "distanceData": {
      "section_1": [
        null,
        []
      ]
    }
  },
  "designData": {
    "save": 1,
    "designLines": {
      "save": 1,
      "Coordinates": {
        "gm1": [
          {
            "line_no": 1,
            "x1": 0,
            "x2": 1200,
            "y1": 124.04165649414062,
            "y2": 124.04165649414062,
            "plot_value": 96,
            "line_top_of": "Ground Water",
            "gm": "1"
          },
          {
            "line_no": 2,
            "x1": 0,
            "x2": 1200,
            "y1": 114.04165649414062,
            "y2": 114.04165649414062,
            "line_top_of": "Made Ground",
            "plot_value": 100,
            "gm": "1"
          },
          {
            "line_no": 3,
            "x1": 0,
            "x2": 1200,
            "y1": 141.04165649414062,
            "y2": 141.04165649414062,
            "line_top_of": "Clay",
            "plot_value": 90,
            "gm": "1"
          },
          {
            "line_no": 4,
            "x1": 0,
            "x2": 1200,
            "y1": 161.04165649414062,
            "y2": 161.04165649414062,
            "line_top_of": "Sand",
            "plot_value": 83,
            "gm": "1"
          },
          {
            "line_no": 5,
            "x1": 0,
            "x2": 1200,
            "y1": 206.04165649414062,
            "y2": 206.04165649414062,
            "line_top_of": "Rock",
            "plot_value": 68,
            "gm": "1"
          }
        ]
      },
      "total": 5,
      "lastLineNo": 5
    },
    "stratumData": {
      "data": {},
      "strataName": [],
      "gm1": [
        {
          "ground_Water": 96,
          "ground_Water_Co_Ordinate": 124.04165649414062,
          "stratumName": "ground_Water"
        },
        {
          "Made Ground": 100,
          "Made Ground_Co_Ordinate": 114.04165649414062,
          "stratumName": "Made Ground"
        },
        {
          "Clay": 90,
          "Clay_Co_Ordinate": 141.04165649414062,
          "stratumName": "Clay"
        },
        {
          "Sand": 83,
          "Sand_Co_Ordinate": 161.04165649414062,
          "stratumName": "Sand"
        },
        {
          "Rock": 68,
          "Rock_Co_Ordinate": 206.04165649414062,
          "stratumName": "Rock"
        }
      ]
    },
    "strataName": {
      "gm1": [
        "ground_Water",
        "Made Ground",
        "Clay",
        "Sand",
        "Rock"
      ]
    }
  },
  "sectionLines": {
    "save": 0,
    "total": 0,
    "lastLineNo": "",
    "Coordinates": ""
  },
  "groundModelLines": {
    "save": 0,
    "total": 0,
    "lastLineNo": "",
    "Coordinates": ""
  }
}